…
  split <- taxi_tab$tpep_dropoff_datetime
  split<-as.data.frame(split)
  split<- split%>%separate(split, c("date","time"), sep="\\s" )
  split$day <- weekdays(as.Date(split$date))
  taxi_tab$day <-split$day
We also added the same attribute to the dataframe that includes boroughs’ names.

split <- zone_df$tpep_dropoff_datetime
  split<-as.data.frame(split)
  split<- split%>%separate(split, c("date","time"), sep="\\s" )
  split$day <- weekdays(as.Date(split$date))
  zone_df$day <-split$day 
zone_df
## # A tibble: 2,000,005 x 12
##    VendorID tpep_pickup_dateti… tpep_dropoff_datet… passenger_count
##       <dbl> <dttm>              <dttm>                        <dbl>
##  1        2 2018-10-04 15:30:58 2018-10-04 15:58:15               1
##  2        2 2018-10-16 20:09:21 2018-10-16 20:25:00               1
##  3        1 2018-10-07 19:57:27 2018-10-07 20:08:03               1
##  4        2 2018-10-23 17:57:50 2018-10-23 18:10:27               2
##  5        2 2018-10-22 13:25:44 2018-10-22 13:31:29               2
##  6        2 2018-10-28 16:50:18 2018-10-28 17:14:08               1
##  7        2 2018-10-17 19:28:06 2018-10-17 19:47:19               1
##  8        1 2018-10-07 00:43:30 2018-10-07 00:58:39               1
##  9        1 2018-10-05 12:25:24 2018-10-05 12:31:06               1
## 10        2 2018-10-23 11:37:31 2018-10-23 11:42:41               1
## # … with 1,999,995 more rows, and 8 more variables: trip_distance <dbl>,
## #   fare_amount <dbl>, tip_amount <dbl>, tolls_amount <dbl>,
## #   PULocationID <dbl>, DOLocationID <dbl>, Borough <chr>, day <chr>
…
